{
  "teachers": [
    {
      "name": "Freddy Vega",
      "twitter": "freddier"
    },
    {
      "name": "Sacha Lifycz",
      "twitter": "sachalifs"
    },
    {
      "name": "Julian Duque",
      "twitter": "julian_duque"
    },
    {
      "name": "Leonidas Esteban",
      "twitter": "LeonidasEsteban"
    }
  ]
}